{
  "info" : {
    "author" : "zeplin",
    "version" : 1
  },
  "images" : [
    {
      "idiom" : "universal",
      "filename" : "noun1220567Cc.png",
      "scale" : "1x"
    },
    {
      "idiom" : "universal",
      "filename" : "noun1220567Cc@2x.png",
      "scale" : "2x"
    },
    {
      "idiom" : "universal",
      "filename" : "noun1220567Cc@3x.png",
      "scale" : "3x"
    }
  ]
}