<?xml version="1.0" encoding="utf-8"?>
<gpx version="1.1" creator="GPS Visualizer http://www.gpsvisualizer.com/" xmlns="http://www.topografix.com/GPX/1/1" xmlns:xsi="http://www.w3.org/2001/XMLSchema-instance" xsi:schemaLocation="http://www.topografix.com/GPX/1/1 http://www.topografix.com/GPX/1/1/gpx.xsd">

    <wpt lat="28.45929" lon="77.07239"></wpt>
    <wpt lat="28.45926" lon="77.07237"></wpt>
    <wpt lat="28.45912" lon="77.07225"></wpt>
    <wpt lat="28.45897" lon="77.07212"></wpt>
    <wpt lat="28.45891" lon="77.07208"></wpt>
    <wpt lat="28.45881" lon="77.07202"></wpt>
    <wpt lat="28.45874" lon="77.07199"></wpt>
    <wpt lat="28.45867" lon="77.07195"></wpt>
    <wpt lat="28.45846" lon="77.07183"></wpt>
    <wpt lat="28.45836" lon="77.07179"></wpt>
    <wpt lat="28.45836" lon="77.07179"></wpt>
    <wpt lat="28.45822" lon="77.07186"></wpt>
    <wpt lat="28.45805" lon="77.07179"></wpt>
    <wpt lat="28.45808" lon="77.0717"></wpt>
    <wpt lat="28.45812" lon="77.07157"></wpt>
    <wpt lat="28.45814" lon="77.07151"></wpt>
    <wpt lat="28.45815" lon="77.07148"></wpt>
    <wpt lat="28.45833" lon="77.0712"></wpt>
    <wpt lat="28.45846" lon="77.07104"></wpt>
    <wpt lat="28.45863" lon="77.07081"></wpt>
    <wpt lat="28.45894" lon="77.07042"></wpt>
    <wpt lat="28.45985" lon="77.06926"></wpt>
    <wpt lat="28.45987" lon="77.06924"></wpt>
    <wpt lat="28.46226" lon="77.06613"></wpt>
    <wpt lat="28.46399" lon="77.06388"></wpt>
    <wpt lat="28.4646" lon="77.06307"></wpt>
    <wpt lat="28.46461" lon="77.06306"></wpt>
    <wpt lat="28.46575" lon="77.06157"></wpt>
    <wpt lat="28.46618" lon="77.06103"></wpt>
    <wpt lat="28.4662" lon="77.061"></wpt>
    <wpt lat="28.46725" lon="77.05961"></wpt>
    <wpt lat="28.46725" lon="77.05961"></wpt>
    <wpt lat="28.46725" lon="77.05955"></wpt>
    <wpt lat="28.46725" lon="77.05951"></wpt>
    <wpt lat="28.46726" lon="77.05949"></wpt>
    <wpt lat="28.46728" lon="77.0594"></wpt>
    <wpt lat="28.46732" lon="77.0593"></wpt>
    <wpt lat="28.46741" lon="77.05914"></wpt>
    <wpt lat="28.4676" lon="77.05883"></wpt>
    <wpt lat="28.46767" lon="77.0587"></wpt>
    <wpt lat="28.46772" lon="77.05861"></wpt>
    <wpt lat="28.46775" lon="77.05854"></wpt>
    <wpt lat="28.46778" lon="77.05847"></wpt>
    <wpt lat="28.46783" lon="77.05837"></wpt>
    <wpt lat="28.468" lon="77.05799"></wpt>
    <wpt lat="28.46805" lon="77.05786"></wpt>
    <wpt lat="28.46809" lon="77.05776"></wpt>
    <wpt lat="28.46811" lon="77.05767"></wpt>
    <wpt lat="28.46812" lon="77.05759"></wpt>
    <wpt lat="28.46813" lon="77.05752"></wpt>
    <wpt lat="28.46812" lon="77.05741"></wpt>
    <wpt lat="28.46811" lon="77.05737"></wpt>
    <wpt lat="28.46809" lon="77.05729"></wpt>
    <wpt lat="28.46804" lon="77.05714"></wpt>
    <wpt lat="28.46754" lon="77.05677"></wpt>
    <wpt lat="28.46627" lon="77.05592"></wpt>
    <wpt lat="28.4657" lon="77.05548"></wpt>
    <wpt lat="28.46519" lon="77.05503"></wpt>
    <wpt lat="28.46497" lon="77.05481"></wpt>
    <wpt lat="28.46497" lon="77.05481"></wpt>
    <wpt lat="28.46471" lon="77.05436"></wpt>
    <wpt lat="28.46411" lon="77.05377"></wpt>
    <wpt lat="28.46188" lon="77.0516"></wpt>
    <wpt lat="28.46164" lon="77.0514"></wpt>
    <wpt lat="28.45985" lon="77.04966"></wpt>
    <wpt lat="28.4598" lon="77.04962"></wpt>
    <wpt lat="28.45969" lon="77.0495"></wpt>
    <wpt lat="28.45955" lon="77.04936"></wpt>
    <wpt lat="28.45666" lon="77.04661"></wpt>
    <wpt lat="28.45634" lon="77.04629"></wpt>
    <wpt lat="28.45462" lon="77.04468"></wpt>
    <wpt lat="28.45449" lon="77.04456"></wpt>
    <wpt lat="28.45439" lon="77.04446"></wpt>
    <wpt lat="28.45197" lon="77.04216"></wpt>
    <wpt lat="28.45186" lon="77.04204"></wpt>
    <wpt lat="28.45181" lon="77.04198"></wpt>
    <wpt lat="28.45177" lon="77.04194"></wpt>
    <wpt lat="28.45176" lon="77.04193"></wpt>
    <wpt lat="28.45165" lon="77.04181"></wpt>
    <wpt lat="28.44843" lon="77.0388"></wpt>
    <wpt lat="28.44758" lon="77.03798"></wpt>
    <wpt lat="28.44703" lon="77.03745"></wpt>
    <wpt lat="28.44675" lon="77.03715"></wpt>
    <wpt lat="28.44661" lon="77.03699"></wpt>
    <wpt lat="28.44648" lon="77.03683"></wpt>
    <wpt lat="28.44638" lon="77.03669"></wpt>
    <wpt lat="28.44624" lon="77.03648"></wpt>
    <wpt lat="28.44614" lon="77.0363"></wpt>
    <wpt lat="28.44598" lon="77.03601"></wpt>
    <wpt lat="28.44592" lon="77.03587"></wpt>
    <wpt lat="28.44575" lon="77.03542"></wpt>
    <wpt lat="28.44564" lon="77.035"></wpt>
    <wpt lat="28.4456" lon="77.03486"></wpt>
    <wpt lat="28.44557" lon="77.03461"></wpt>
    <wpt lat="28.44553" lon="77.03432"></wpt>
    <wpt lat="28.44552" lon="77.03397"></wpt>
    <wpt lat="28.44552" lon="77.03362"></wpt>
    <wpt lat="28.44551" lon="77.03343"></wpt>
    <wpt lat="28.44553" lon="77.03322"></wpt>
    <wpt lat="28.44555" lon="77.03303"></wpt>
    <wpt lat="28.44558" lon="77.03282"></wpt>
    <wpt lat="28.44561" lon="77.03268"></wpt>
    <wpt lat="28.44565" lon="77.03252"></wpt>
    <wpt lat="28.44569" lon="77.03235"></wpt>
    <wpt lat="28.44575" lon="77.03214"></wpt>
    <wpt lat="28.44582" lon="77.03187"></wpt>
    <wpt lat="28.4463" lon="77.03016"></wpt>
    <wpt lat="28.44741" lon="77.02624"></wpt>
    <wpt lat="28.44749" lon="77.02595"></wpt>
    <wpt lat="28.44794" lon="77.02436"></wpt>
    <wpt lat="28.44806" lon="77.02397"></wpt>
    <wpt lat="28.44813" lon="77.02365"></wpt>
    <wpt lat="28.44819" lon="77.02337"></wpt>
    <wpt lat="28.44821" lon="77.02313"></wpt>
    <wpt lat="28.44824" lon="77.02286"></wpt>
    <wpt lat="28.44824" lon="77.02267"></wpt>
    <wpt lat="28.44823" lon="77.02248"></wpt>
    <wpt lat="28.44818" lon="77.02198"></wpt>
    <wpt lat="28.44813" lon="77.02174"></wpt>
    <wpt lat="28.44809" lon="77.02154"></wpt>
    <wpt lat="28.44801" lon="77.02128"></wpt>
    <wpt lat="28.4479" lon="77.02101"></wpt>
    <wpt lat="28.44783" lon="77.02083"></wpt>
    <wpt lat="28.44776" lon="77.02069"></wpt>
    <wpt lat="28.44767" lon="77.02054"></wpt>
    <wpt lat="28.44758" lon="77.02038"></wpt>
    <wpt lat="28.44747" lon="77.02023"></wpt>
    <wpt lat="28.44736" lon="77.02008"></wpt>
    <wpt lat="28.44724" lon="77.01993"></wpt>
    <wpt lat="28.44711" lon="77.0198"></wpt>
    <wpt lat="28.44694" lon="77.01962"></wpt>
    <wpt lat="28.44678" lon="77.01948"></wpt>
    <wpt lat="28.44638" lon="77.01913"></wpt>
    <wpt lat="28.44557" lon="77.01847"></wpt>
    <wpt lat="28.44417" lon="77.01729"></wpt>
    <wpt lat="28.44134" lon="77.01489"></wpt>
    <wpt lat="28.4407" lon="77.01435"></wpt>
    <wpt lat="28.44004" lon="77.0138"></wpt>
    <wpt lat="28.43966" lon="77.01347"></wpt>
    <wpt lat="28.43947" lon="77.0133"></wpt>
    <wpt lat="28.4393" lon="77.01318"></wpt>
    <wpt lat="28.43896" lon="77.01294"></wpt>
    <wpt lat="28.43866" lon="77.01271"></wpt>
    <wpt lat="28.43829" lon="77.01237"></wpt>
    <wpt lat="28.43765" lon="77.01184"></wpt>
    <wpt lat="28.43583" lon="77.01041"></wpt>
    <wpt lat="28.43571" lon="77.01031"></wpt>
    <wpt lat="28.43504" lon="77.00975"></wpt>
    <wpt lat="28.43485" lon="77.0096"></wpt>
    <wpt lat="28.4347" lon="77.00947"></wpt>
    <wpt lat="28.43467" lon="77.00945"></wpt>
    <wpt lat="28.43321" lon="77.00816"></wpt>
    <wpt lat="28.43231" lon="77.00726"></wpt>
    <wpt lat="28.43219" lon="77.00716"></wpt>
    <wpt lat="28.4319" lon="77.00692"></wpt>
    <wpt lat="28.43157" lon="77.00664"></wpt>
    <wpt lat="28.43082" lon="77.00599"></wpt>
    <wpt lat="28.43016" lon="77.00546"></wpt>
    <wpt lat="28.42943" lon="77.00482"></wpt>
    <wpt lat="28.42629" lon="77.00217"></wpt>
    <wpt lat="28.42416" lon="77.00037"></wpt>
    <wpt lat="28.42361" lon="76.99998"></wpt>
    <wpt lat="28.42301" lon="76.99965"></wpt>
    <wpt lat="28.42043" lon="76.99826"></wpt>
    <wpt lat="28.41881" lon="76.99737"></wpt>
    <wpt lat="28.4183" lon="76.99711"></wpt>
    <wpt lat="28.41726" lon="76.99655"></wpt>
    <wpt lat="28.41464" lon="76.99513"></wpt>
    <wpt lat="28.41431" lon="76.99494"></wpt>
    <wpt lat="28.41304" lon="76.99426"></wpt>
    <wpt lat="28.41299" lon="76.99423"></wpt>
    <wpt lat="28.41287" lon="76.99416"></wpt>
    <wpt lat="28.41221" lon="76.99381"></wpt>
    <wpt lat="28.41155" lon="76.99345"></wpt>
    <wpt lat="28.41085" lon="76.99306"></wpt>
    <wpt lat="28.40952" lon="76.99235"></wpt>
    <wpt lat="28.40807" lon="76.99155"></wpt>
    <wpt lat="28.40796" lon="76.9915"></wpt>
    <wpt lat="28.40612" lon="76.99049"></wpt>
    <wpt lat="28.40581" lon="76.99033"></wpt>
    <wpt lat="28.40549" lon="76.99016"></wpt>
    <wpt lat="28.40492" lon="76.98984"></wpt>
    <wpt lat="28.40446" lon="76.98958"></wpt>
    <wpt lat="28.40359" lon="76.9891"></wpt>
    <wpt lat="28.40318" lon="76.98888"></wpt>
    <wpt lat="28.40281" lon="76.98868"></wpt>
    <wpt lat="28.40256" lon="76.98854"></wpt>
    <wpt lat="28.4023" lon="76.98838"></wpt>
    <wpt lat="28.40196" lon="76.98814"></wpt>
    <wpt lat="28.40185" lon="76.98806"></wpt>
    <wpt lat="28.4017" lon="76.98794"></wpt>
    <wpt lat="28.40157" lon="76.98782"></wpt>
    <wpt lat="28.40138" lon="76.98764"></wpt>
    <wpt lat="28.40071" lon="76.98699"></wpt>
    <wpt lat="28.40018" lon="76.98645"></wpt>
    <wpt lat="28.40011" lon="76.98639"></wpt>
    <wpt lat="28.40005" lon="76.98633"></wpt>
    <wpt lat="28.39801" lon="76.98437"></wpt>
    <wpt lat="28.39711" lon="76.98348"></wpt>
    <wpt lat="28.39663" lon="76.98303"></wpt>
    <wpt lat="28.39629" lon="76.98273"></wpt>
    <wpt lat="28.3955" lon="76.98194"></wpt>
    <wpt lat="28.39527" lon="76.9817"></wpt>
    <wpt lat="28.39517" lon="76.9816"></wpt>
    <wpt lat="28.39507" lon="76.9815"></wpt>
    <wpt lat="28.39468" lon="76.9811"></wpt>
    <wpt lat="28.39451" lon="76.98093"></wpt>
    <wpt lat="28.39432" lon="76.98073"></wpt>
    <wpt lat="28.39411" lon="76.98052"></wpt>
    <wpt lat="28.39358" lon="76.98001"></wpt>
    <wpt lat="28.39357" lon="76.97999"></wpt>
    <wpt lat="28.393" lon="76.97951"></wpt>
    <wpt lat="28.39279" lon="76.97933"></wpt>
    <wpt lat="28.39272" lon="76.97927"></wpt>
    <wpt lat="28.39206" lon="76.97865"></wpt>
    <wpt lat="28.39046" lon="76.97709"></wpt>
    <wpt lat="28.39005" lon="76.97668"></wpt>
    <wpt lat="28.38997" lon="76.97661"></wpt>
    <wpt lat="28.38952" lon="76.97616"></wpt>
    <wpt lat="28.38922" lon="76.97586"></wpt>
    <wpt lat="28.38788" lon="76.97454"></wpt>
    <wpt lat="28.38786" lon="76.97451"></wpt>
    <wpt lat="28.38687" lon="76.97354"></wpt>
    <wpt lat="28.38658" lon="76.97326"></wpt>
    <wpt lat="28.38623" lon="76.97291"></wpt>
    <wpt lat="28.3862" lon="76.97288"></wpt>
    <wpt lat="28.38569" lon="76.9724"></wpt>
    <wpt lat="28.38524" lon="76.97195"></wpt>
    <wpt lat="28.38521" lon="76.97193"></wpt>
    <wpt lat="28.38496" lon="76.9717"></wpt>
    <wpt lat="28.3842" lon="76.97098"></wpt>
    <wpt lat="28.38409" lon="76.97085"></wpt>
    <wpt lat="28.38378" lon="76.97054"></wpt>
    <wpt lat="28.38373" lon="76.97048"></wpt>
    <wpt lat="28.38356" lon="76.97024"></wpt>
    <wpt lat="28.38346" lon="76.97008"></wpt>
    <wpt lat="28.3833" lon="76.96979"></wpt>
    <wpt lat="28.38309" lon="76.96943"></wpt>
    <wpt lat="28.38275" lon="76.96874"></wpt>
    <wpt lat="28.38269" lon="76.96863"></wpt>
    <wpt lat="28.3824" lon="76.96805"></wpt>
    <wpt lat="28.38227" lon="76.96782"></wpt>
    <wpt lat="28.38201" lon="76.96732"></wpt>
    <wpt lat="28.38119" lon="76.96573"></wpt>
    <wpt lat="28.38067" lon="76.96472"></wpt>
    <wpt lat="28.38018" lon="76.96378"></wpt>
    <wpt lat="28.37963" lon="76.9627"></wpt>
    <wpt lat="28.37906" lon="76.96152"></wpt>
    <wpt lat="28.37895" lon="76.96132"></wpt>
    <wpt lat="28.37884" lon="76.96112"></wpt>
    <wpt lat="28.3788" lon="76.96104"></wpt>
    <wpt lat="28.37841" lon="76.96023"></wpt>
    <wpt lat="28.37777" lon="76.95898"></wpt>
    <wpt lat="28.37683" lon="76.95718"></wpt>
    <wpt lat="28.37675" lon="76.95702"></wpt>
    <wpt lat="28.37606" lon="76.95564"></wpt>
    <wpt lat="28.37561" lon="76.95475"></wpt>
    <wpt lat="28.37508" lon="76.9537"></wpt>
    <wpt lat="28.375" lon="76.95353"></wpt>
    <wpt lat="28.37484" lon="76.95324"></wpt>
    <wpt lat="28.37448" lon="76.95254"></wpt>
    <wpt lat="28.37415" lon="76.95189"></wpt>
    <wpt lat="28.37389" lon="76.95137"></wpt>
    <wpt lat="28.37377" lon="76.95112"></wpt>
    <wpt lat="28.37328" lon="76.95017"></wpt>
    <wpt lat="28.37318" lon="76.95"></wpt>
    <wpt lat="28.37256" lon="76.94877"></wpt>
    <wpt lat="28.37235" lon="76.94833"></wpt>
    <wpt lat="28.37198" lon="76.94758"></wpt>
    <wpt lat="28.37168" lon="76.94693"></wpt>
    <wpt lat="28.37136" lon="76.9461"></wpt>
    <wpt lat="28.37116" lon="76.94564"></wpt>
    <wpt lat="28.37103" lon="76.94537"></wpt>
    <wpt lat="28.37098" lon="76.94527"></wpt>
    <wpt lat="28.37091" lon="76.94515"></wpt>
    <wpt lat="28.3707" lon="76.94485"></wpt>
    <wpt lat="28.37053" lon="76.94463"></wpt>
    <wpt lat="28.37038" lon="76.94447"></wpt>
    <wpt lat="28.37022" lon="76.94432"></wpt>
    <wpt lat="28.37004" lon="76.94418"></wpt>
    <wpt lat="28.36982" lon="76.94403"></wpt>
    <wpt lat="28.36945" lon="76.94384"></wpt>
    <wpt lat="28.36897" lon="76.94362"></wpt>
    <wpt lat="28.36884" lon="76.94356"></wpt>
    <wpt lat="28.36781" lon="76.94315"></wpt>
    <wpt lat="28.36746" lon="76.94301"></wpt>
    <wpt lat="28.36678" lon="76.9427"></wpt>
    <wpt lat="28.36667" lon="76.94266"></wpt>
    <wpt lat="28.36647" lon="76.94257"></wpt>
    <wpt lat="28.36644" lon="76.94256"></wpt>
    <wpt lat="28.3664" lon="76.94258"></wpt>
    <wpt lat="28.36637" lon="76.94259"></wpt>
    <wpt lat="28.36634" lon="76.9426"></wpt>
    <wpt lat="28.36627" lon="76.94261"></wpt>
    <wpt lat="28.36553" lon="76.9423"></wpt>
    <wpt lat="28.36468" lon="76.94194"></wpt>
    <wpt lat="28.36382" lon="76.94158"></wpt>
    <wpt lat="28.36311" lon="76.94125"></wpt>
    <wpt lat="28.36256" lon="76.94103"></wpt>
    <wpt lat="28.36248" lon="76.94101"></wpt>
    <wpt lat="28.36248" lon="76.94101"></wpt>
    <wpt lat="28.36247" lon="76.941"></wpt>
    <wpt lat="28.36242" lon="76.94099"></wpt>
    <wpt lat="28.36236" lon="76.94097"></wpt>
    <wpt lat="28.36222" lon="76.9409"></wpt>
    <wpt lat="28.36206" lon="76.94085"></wpt>
    <wpt lat="28.36197" lon="76.9408"></wpt>
    <wpt lat="28.36187" lon="76.94075"></wpt>
    <wpt lat="28.36175" lon="76.94069"></wpt>
    <wpt lat="28.36171" lon="76.94067"></wpt>
    <wpt lat="28.36166" lon="76.94064"></wpt>
    <wpt lat="28.36164" lon="76.94061"></wpt>
    <wpt lat="28.36147" lon="76.9405"></wpt>
    <wpt lat="28.36147" lon="76.9405"></wpt>
    <wpt lat="28.36137" lon="76.94044"></wpt>
    <wpt lat="28.36127" lon="76.94038"></wpt>
    <wpt lat="28.36026" lon="76.93995"></wpt>
    <wpt lat="28.3592" lon="76.93951"></wpt>
    <wpt lat="28.35879" lon="76.93933"></wpt>
    <wpt lat="28.35821" lon="76.93907"></wpt>
    <wpt lat="28.35749" lon="76.93879"></wpt>
    <wpt lat="28.35749" lon="76.93879"></wpt>
    <wpt lat="28.35745" lon="76.9389"></wpt>
    <wpt lat="28.35731" lon="76.93883"></wpt>
    <wpt lat="28.35663" lon="76.93856"></wpt>
    <wpt lat="28.35623" lon="76.93839"></wpt>
    <wpt lat="28.35587" lon="76.93824"></wpt>
    <wpt lat="28.35569" lon="76.93817"></wpt>
    <wpt lat="28.35536" lon="76.93804"></wpt>
    <wpt lat="28.35523" lon="76.93799"></wpt>
    <wpt lat="28.35523" lon="76.93799"></wpt>
    <wpt lat="28.35482" lon="76.93846"></wpt>
    <wpt lat="28.35479" lon="76.93848"></wpt>
    <wpt lat="28.35475" lon="76.93851"></wpt>
    <wpt lat="28.3547" lon="76.93853"></wpt>
    <wpt lat="28.35467" lon="76.93854"></wpt>
    <wpt lat="28.35462" lon="76.93855"></wpt>
    <wpt lat="28.35459" lon="76.93856"></wpt>
    <wpt lat="28.35457" lon="76.93858"></wpt>
    <wpt lat="28.35454" lon="76.93858"></wpt>
    <wpt lat="28.35451" lon="76.93858"></wpt>
    <wpt lat="28.35448" lon="76.93858"></wpt>
    <wpt lat="28.35444" lon="76.93858"></wpt>
    <wpt lat="28.35442" lon="76.93858"></wpt>
    <wpt lat="28.3544" lon="76.93858"></wpt>
    <wpt lat="28.35437" lon="76.93857"></wpt>
    <wpt lat="28.35436" lon="76.93857"></wpt>
    <wpt lat="28.35433" lon="76.93858"></wpt>
    <wpt lat="28.35431" lon="76.93859"></wpt>
    <wpt lat="28.35429" lon="76.9386"></wpt>
    <wpt lat="28.35426" lon="76.93862"></wpt>
    <wpt lat="28.35425" lon="76.93863"></wpt>
    <wpt lat="28.35387" lon="76.93929"></wpt>
    <wpt lat="28.35384" lon="76.93933"></wpt>
    <wpt lat="28.35382" lon="76.93934"></wpt>
    <wpt lat="28.3538" lon="76.93934"></wpt>
    <wpt lat="28.35376" lon="76.93935"></wpt>
    <wpt lat="28.35374" lon="76.93935"></wpt>
    <wpt lat="28.3537" lon="76.93936"></wpt>
    <wpt lat="28.35367" lon="76.93936"></wpt>
    <wpt lat="28.35363" lon="76.93937"></wpt>
    <wpt lat="28.35359" lon="76.93939"></wpt>
    <wpt lat="28.35355" lon="76.9394"></wpt>
    <wpt lat="28.35354" lon="76.93941"></wpt>
    <wpt lat="28.35353" lon="76.93943"></wpt>
    <wpt lat="28.35352" lon="76.93944"></wpt>
    <wpt lat="28.35333" lon="76.93982"></wpt>
    <wpt lat="28.35333" lon="76.93982"></wpt>
    <wpt lat="28.35363" lon="76.93997"></wpt>
    <wpt lat="28.35401" lon="76.94017"></wpt>
    <wpt lat="28.35403" lon="76.94018"></wpt>
    <wpt lat="28.35406" lon="76.94019"></wpt>
    <wpt lat="28.35409" lon="76.94019"></wpt>
    <wpt lat="28.35411" lon="76.94018"></wpt>
    <wpt lat="28.35412" lon="76.94018"></wpt>
    <wpt lat="28.35412" lon="76.94018"></wpt>
    <wpt lat="28.35415" lon="76.94005"></wpt>
    <wpt lat="28.35422" lon="76.93987"></wpt>
    <wpt lat="28.35426" lon="76.9398"></wpt>
    <wpt lat="28.35426" lon="76.9398"></wpt>
    <wpt lat="28.35422" lon="76.93987"></wpt>
    <wpt lat="28.35415" lon="76.94005"></wpt>
    <wpt lat="28.35412" lon="76.94018"></wpt>
    <wpt lat="28.35412" lon="76.94018"></wpt>
    <wpt lat="28.35411" lon="76.94018"></wpt>
    <wpt lat="28.35409" lon="76.94019"></wpt>
    <wpt lat="28.35406" lon="76.94019"></wpt>
    <wpt lat="28.35403" lon="76.94018"></wpt>
    <wpt lat="28.35401" lon="76.94017"></wpt>
    <wpt lat="28.35363" lon="76.93997"></wpt>
    <wpt lat="28.35333" lon="76.93982"></wpt>
    <wpt lat="28.35333" lon="76.93982"></wpt>
    <wpt lat="28.35352" lon="76.93944"></wpt>
    <wpt lat="28.35353" lon="76.93943"></wpt>
    <wpt lat="28.35354" lon="76.93941"></wpt>
    <wpt lat="28.35355" lon="76.9394"></wpt>
    <wpt lat="28.35359" lon="76.93939"></wpt>
    <wpt lat="28.35363" lon="76.93937"></wpt>
    <wpt lat="28.35367" lon="76.93936"></wpt>
    <wpt lat="28.3537" lon="76.93936"></wpt>
    <wpt lat="28.35374" lon="76.93935"></wpt>
    <wpt lat="28.35376" lon="76.93935"></wpt>
    <wpt lat="28.3538" lon="76.93934"></wpt>
    <wpt lat="28.35382" lon="76.93934"></wpt>
    <wpt lat="28.35384" lon="76.93933"></wpt>
    <wpt lat="28.35387" lon="76.93929"></wpt>
    <wpt lat="28.35425" lon="76.93863"></wpt>
    <wpt lat="28.35426" lon="76.93862"></wpt>
    <wpt lat="28.35429" lon="76.9386"></wpt>
    <wpt lat="28.35431" lon="76.93859"></wpt>
    <wpt lat="28.35433" lon="76.93858"></wpt>
    <wpt lat="28.35436" lon="76.93857"></wpt>
    <wpt lat="28.35437" lon="76.93857"></wpt>
    <wpt lat="28.3544" lon="76.93858"></wpt>
    <wpt lat="28.3544" lon="76.93858"></wpt>
    <wpt lat="28.3544" lon="76.93856"></wpt>
    <wpt lat="28.3544" lon="76.9385"></wpt>
    <wpt lat="28.3544" lon="76.93844"></wpt>
    <wpt lat="28.3544" lon="76.93842"></wpt>
    <wpt lat="28.3544" lon="76.93837"></wpt>
    <wpt lat="28.35438" lon="76.93831"></wpt>
    <wpt lat="28.35436" lon="76.93824"></wpt>
    <wpt lat="28.35432" lon="76.93817"></wpt>
    <wpt lat="28.35426" lon="76.93809"></wpt>
    <wpt lat="28.35422" lon="76.93803"></wpt>
    <wpt lat="28.35417" lon="76.93799"></wpt>
    <wpt lat="28.3541" lon="76.93794"></wpt>
    <wpt lat="28.35392" lon="76.9378"></wpt>
    <wpt lat="28.35392" lon="76.9378"></wpt>
    <wpt lat="28.35374" lon="76.93781"></wpt>
    <wpt lat="28.35366" lon="76.9378"></wpt>
    <wpt lat="28.35363" lon="76.93781"></wpt>
    <wpt lat="28.35347" lon="76.93783"></wpt>
    <wpt lat="28.35318" lon="76.93788"></wpt>
    <wpt lat="28.35301" lon="76.93793"></wpt>
    <wpt lat="28.35277" lon="76.93801"></wpt>
    <wpt lat="28.35223" lon="76.93821"></wpt>
    <wpt lat="28.35223" lon="76.93821"></wpt>
    <wpt lat="28.35214" lon="76.93788"></wpt>
    <wpt lat="28.35261" lon="76.93768"></wpt>
    <wpt lat="28.35287" lon="76.93757"></wpt>
    <wpt lat="28.35315" lon="76.93748"></wpt>
    <wpt lat="28.3533" lon="76.93745"></wpt>
    <wpt lat="28.35338" lon="76.93744"></wpt>
    <wpt lat="28.35356" lon="76.93742"></wpt>
    <wpt lat="28.35365" lon="76.93741"></wpt>
    <wpt lat="28.35419" lon="76.93739"></wpt>
    <wpt lat="28.35443" lon="76.93742"></wpt>
    <wpt lat="28.35459" lon="76.93745"></wpt>
    <wpt lat="28.35477" lon="76.9375"></wpt>
    <wpt lat="28.3547" lon="76.93764"></wpt>
    <wpt lat="28.3547" lon="76.93764"></wpt>
    <wpt lat="28.35491" lon="76.93769"></wpt>
    <wpt lat="28.35508" lon="76.93774"></wpt>
    <wpt lat="28.3551" lon="76.93774"></wpt>
    <wpt lat="28.35523" lon="76.93778"></wpt>
    <wpt lat="28.35538" lon="76.93783"></wpt>
    <wpt lat="28.35628" lon="76.93817"></wpt>
    <wpt lat="28.3564" lon="76.93822"></wpt>
    <wpt lat="28.3572" lon="76.93853"></wpt>
    <wpt lat="28.35765" lon="76.9387"></wpt>
    <wpt lat="28.35816" lon="76.93891"></wpt>
    <wpt lat="28.35924" lon="76.93937"></wpt>
    <wpt lat="28.35998" lon="76.93969"></wpt>
    <wpt lat="28.36075" lon="76.93999"></wpt>
    <wpt lat="28.3613" lon="76.94018"></wpt>
    <wpt lat="28.36147" lon="76.94022"></wpt>
    <wpt lat="28.3616" lon="76.94025"></wpt>
    <wpt lat="28.36185" lon="76.94029"></wpt>
    <wpt lat="28.36195" lon="76.94032"></wpt>
    <wpt lat="28.36205" lon="76.94036"></wpt>
    <wpt lat="28.36226" lon="76.94046"></wpt>
    <wpt lat="28.36245" lon="76.94052"></wpt>
    <wpt lat="28.36254" lon="76.94056"></wpt>
    <wpt lat="28.36264" lon="76.94058"></wpt>
    <wpt lat="28.36275" lon="76.9406"></wpt>
    <wpt lat="28.36281" lon="76.94063"></wpt>
    <wpt lat="28.36304" lon="76.94072"></wpt>
    <wpt lat="28.36395" lon="76.94117"></wpt>
    <wpt lat="28.36502" lon="76.94162"></wpt>
    <wpt lat="28.36575" lon="76.94194"></wpt>
    <wpt lat="28.36622" lon="76.94215"></wpt>
    <wpt lat="28.36653" lon="76.94229"></wpt>
    <wpt lat="28.36653" lon="76.94229"></wpt>
    <wpt lat="28.36685" lon="76.94256"></wpt>
    <wpt lat="28.36753" lon="76.94285"></wpt>
    <wpt lat="28.36786" lon="76.94299"></wpt>
    <wpt lat="28.36915" lon="76.94353"></wpt>
    <wpt lat="28.36947" lon="76.94368"></wpt>
    <wpt lat="28.36964" lon="76.94376"></wpt>
    <wpt lat="28.36993" lon="76.94393"></wpt>
    <wpt lat="28.37011" lon="76.94405"></wpt>
    <wpt lat="28.37031" lon="76.94421"></wpt>
    <wpt lat="28.37047" lon="76.94436"></wpt>
    <wpt lat="28.37059" lon="76.94449"></wpt>
    <wpt lat="28.37069" lon="76.9446"></wpt>
    <wpt lat="28.3708" lon="76.94474"></wpt>
    <wpt lat="28.37089" lon="76.94486"></wpt>
    <wpt lat="28.37104" lon="76.9451"></wpt>
    <wpt lat="28.37115" lon="76.94528"></wpt>
    <wpt lat="28.37124" lon="76.94546"></wpt>
    <wpt lat="28.37128" lon="76.94554"></wpt>
    <wpt lat="28.37149" lon="76.94601"></wpt>
    <wpt lat="28.37169" lon="76.94651"></wpt>
    <wpt lat="28.37199" lon="76.94722"></wpt>
    <wpt lat="28.37207" lon="76.94741"></wpt>
    <wpt lat="28.37214" lon="76.94755"></wpt>
    <wpt lat="28.37232" lon="76.94791"></wpt>
    <wpt lat="28.3724" lon="76.94808"></wpt>
    <wpt lat="28.3725" lon="76.94825"></wpt>
    <wpt lat="28.37325" lon="76.94971"></wpt>
    <wpt lat="28.3733" lon="76.94981"></wpt>
    <wpt lat="28.37348" lon="76.95016"></wpt>
    <wpt lat="28.374" lon="76.95125"></wpt>
    <wpt lat="28.37403" lon="76.95131"></wpt>
    <wpt lat="28.37435" lon="76.95194"></wpt>
    <wpt lat="28.37473" lon="76.95272"></wpt>
    <wpt lat="28.37512" lon="76.9535"></wpt>
    <wpt lat="28.37518" lon="76.95361"></wpt>
    <wpt lat="28.37529" lon="76.9538"></wpt>
    <wpt lat="28.37546" lon="76.95413"></wpt>
    <wpt lat="28.37567" lon="76.95455"></wpt>
    <wpt lat="28.3757" lon="76.95462"></wpt>
    <wpt lat="28.37707" lon="76.95732"></wpt>
    <wpt lat="28.37736" lon="76.95793"></wpt>
    <wpt lat="28.37834" lon="76.9598"></wpt>
    <wpt lat="28.37853" lon="76.96018"></wpt>
    <wpt lat="28.37897" lon="76.96104"></wpt>
    <wpt lat="28.37907" lon="76.96124"></wpt>
    <wpt lat="28.37917" lon="76.96145"></wpt>
    <wpt lat="28.37931" lon="76.96172"></wpt>
    <wpt lat="28.38017" lon="76.9634"></wpt>
    <wpt lat="28.38116" lon="76.96528"></wpt>
    <wpt lat="28.38126" lon="76.9655"></wpt>
    <wpt lat="28.38167" lon="76.96631"></wpt>
    <wpt lat="28.38192" lon="76.96676"></wpt>
    <wpt lat="28.38268" lon="76.96828"></wpt>
    <wpt lat="28.38271" lon="76.96835"></wpt>
    <wpt lat="28.38272" lon="76.96836"></wpt>
    <wpt lat="28.38275" lon="76.96842"></wpt>
    <wpt lat="28.3828" lon="76.96851"></wpt>
    <wpt lat="28.383" lon="76.96892"></wpt>
    <wpt lat="28.38319" lon="76.9693"></wpt>
    <wpt lat="28.38348" lon="76.96986"></wpt>
    <wpt lat="28.38363" lon="76.97009"></wpt>
    <wpt lat="28.38377" lon="76.9703"></wpt>
    <wpt lat="28.38385" lon="76.97039"></wpt>
    <wpt lat="28.38423" lon="76.97075"></wpt>
    <wpt lat="28.38424" lon="76.97076"></wpt>
    <wpt lat="28.38502" lon="76.97154"></wpt>
    <wpt lat="28.38528" lon="76.97179"></wpt>
    <wpt lat="28.38531" lon="76.97182"></wpt>
    <wpt lat="28.386" lon="76.97248"></wpt>
    <wpt lat="28.38629" lon="76.97276"></wpt>
    <wpt lat="28.38649" lon="76.97295"></wpt>
    <wpt lat="28.38669" lon="76.97314"></wpt>
    <wpt lat="28.38798" lon="76.97438"></wpt>
    <wpt lat="28.38801" lon="76.9744"></wpt>
    <wpt lat="28.38905" lon="76.97545"></wpt>
    <wpt lat="28.38962" lon="76.97605"></wpt>
    <wpt lat="28.39059" lon="76.97698"></wpt>
    <wpt lat="28.39108" lon="76.97745"></wpt>
    <wpt lat="28.3915" lon="76.97786"></wpt>
    <wpt lat="28.39182" lon="76.97817"></wpt>
    <wpt lat="28.39213" lon="76.97847"></wpt>
    <wpt lat="28.39252" lon="76.97884"></wpt>
    <wpt lat="28.3927" lon="76.97902"></wpt>
    <wpt lat="28.39282" lon="76.97914"></wpt>
    <wpt lat="28.39286" lon="76.97917"></wpt>
    <wpt lat="28.39289" lon="76.97919"></wpt>
    <wpt lat="28.39292" lon="76.97922"></wpt>
    <wpt lat="28.39296" lon="76.97925"></wpt>
    <wpt lat="28.39299" lon="76.97928"></wpt>
    <wpt lat="28.39302" lon="76.97931"></wpt>
    <wpt lat="28.39306" lon="76.97933"></wpt>
    <wpt lat="28.39309" lon="76.97936"></wpt>
    <wpt lat="28.39331" lon="76.97956"></wpt>
    <wpt lat="28.39353" lon="76.97976"></wpt>
    <wpt lat="28.39376" lon="76.97996"></wpt>
    <wpt lat="28.39398" lon="76.98016"></wpt>
    <wpt lat="28.39419" lon="76.98033"></wpt>
    <wpt lat="28.39421" lon="76.98035"></wpt>
    <wpt lat="28.39445" lon="76.98053"></wpt>
    <wpt lat="28.39469" lon="76.98072"></wpt>
    <wpt lat="28.39493" lon="76.9809"></wpt>
    <wpt lat="28.39549" lon="76.98142"></wpt>
    <wpt lat="28.39559" lon="76.98152"></wpt>
    <wpt lat="28.39567" lon="76.98161"></wpt>
    <wpt lat="28.39572" lon="76.98167"></wpt>
    <wpt lat="28.39599" lon="76.98199"></wpt>
    <wpt lat="28.39626" lon="76.9823"></wpt>
    <wpt lat="28.39643" lon="76.98249"></wpt>
    <wpt lat="28.39678" lon="76.98284"></wpt>
    <wpt lat="28.39695" lon="76.98306"></wpt>
    <wpt lat="28.39729" lon="76.98346"></wpt>
    <wpt lat="28.39769" lon="76.98387"></wpt>
    <wpt lat="28.3988" lon="76.98499"></wpt>
    <wpt lat="28.39993" lon="76.98608"></wpt>
    <wpt lat="28.40131" lon="76.98745"></wpt>
    <wpt lat="28.40149" lon="76.98761"></wpt>
    <wpt lat="28.40164" lon="76.98776"></wpt>
    <wpt lat="28.40191" lon="76.98798"></wpt>
    <wpt lat="28.40208" lon="76.98812"></wpt>
    <wpt lat="28.40225" lon="76.98823"></wpt>
    <wpt lat="28.40248" lon="76.98839"></wpt>
    <wpt lat="28.40268" lon="76.9885"></wpt>
    <wpt lat="28.40282" lon="76.98858"></wpt>
    <wpt lat="28.40295" lon="76.98864"></wpt>
    <wpt lat="28.40355" lon="76.98896"></wpt>
    <wpt lat="28.40404" lon="76.98922"></wpt>
    <wpt lat="28.40474" lon="76.9896"></wpt>
    <wpt lat="28.40556" lon="76.99004"></wpt>
    <wpt lat="28.40587" lon="76.9902"></wpt>
    <wpt lat="28.40617" lon="76.99037"></wpt>
    <wpt lat="28.40636" lon="76.99047"></wpt>
    <wpt lat="28.40732" lon="76.99099"></wpt>
    <wpt lat="28.40881" lon="76.99179"></wpt>
    <wpt lat="28.41131" lon="76.99317"></wpt>
    <wpt lat="28.41309" lon="76.99413"></wpt>
    <wpt lat="28.41486" lon="76.99509"></wpt>
    <wpt lat="28.41749" lon="76.9965"></wpt>
    <wpt lat="28.41828" lon="76.99695"></wpt>
    <wpt lat="28.41873" lon="76.99718"></wpt>
    <wpt lat="28.4195" lon="76.9976"></wpt>
    <wpt lat="28.42013" lon="76.99794"></wpt>
    <wpt lat="28.42132" lon="76.9986"></wpt>
    <wpt lat="28.42301" lon="76.99951"></wpt>
    <wpt lat="28.42351" lon="76.99979"></wpt>
    <wpt lat="28.42382" lon="76.99999"></wpt>
    <wpt lat="28.42412" lon="77.0002"></wpt>
    <wpt lat="28.42468" lon="77.00064"></wpt>
    <wpt lat="28.42518" lon="77.00107"></wpt>
    <wpt lat="28.42735" lon="77.00289"></wpt>
    <wpt lat="28.42954" lon="77.00476"></wpt>
    <wpt lat="28.43027" lon="77.00536"></wpt>
    <wpt lat="28.43092" lon="77.00591"></wpt>
    <wpt lat="28.43118" lon="77.00613"></wpt>
    <wpt lat="28.4321" lon="77.0069"></wpt>
    <wpt lat="28.43237" lon="77.00716"></wpt>
    <wpt lat="28.43327" lon="77.008"></wpt>
    <wpt lat="28.43393" lon="77.00855"></wpt>
    <wpt lat="28.4348" lon="77.00932"></wpt>
    <wpt lat="28.43481" lon="77.00933"></wpt>
    <wpt lat="28.43483" lon="77.00935"></wpt>
    <wpt lat="28.43496" lon="77.00945"></wpt>
    <wpt lat="28.43512" lon="77.00958"></wpt>
    <wpt lat="28.43581" lon="77.01017"></wpt>
    <wpt lat="28.43589" lon="77.01024"></wpt>
    <wpt lat="28.436" lon="77.01033"></wpt>
    <wpt lat="28.43838" lon="77.01216"></wpt>
    <wpt lat="28.43878" lon="77.01248"></wpt>
    <wpt lat="28.43956" lon="77.01313"></wpt>
    <wpt lat="28.43956" lon="77.01314"></wpt>
    <wpt lat="28.44042" lon="77.01384"></wpt>
    <wpt lat="28.44069" lon="77.01408"></wpt>
    <wpt lat="28.44159" lon="77.01483"></wpt>
    <wpt lat="28.44229" lon="77.01542"></wpt>
    <wpt lat="28.4469" lon="77.01929"></wpt>
    <wpt lat="28.4471" lon="77.01948"></wpt>
    <wpt lat="28.44729" lon="77.01968"></wpt>
    <wpt lat="28.44743" lon="77.01983"></wpt>
    <wpt lat="28.44753" lon="77.01996"></wpt>
    <wpt lat="28.44765" lon="77.02012"></wpt>
    <wpt lat="28.44774" lon="77.02027"></wpt>
    <wpt lat="28.44784" lon="77.02044"></wpt>
    <wpt lat="28.44793" lon="77.02059"></wpt>
    <wpt lat="28.44802" lon="77.02079"></wpt>
    <wpt lat="28.44813" lon="77.02105"></wpt>
    <wpt lat="28.4482" lon="77.02125"></wpt>
    <wpt lat="28.44825" lon="77.02142"></wpt>
    <wpt lat="28.4483" lon="77.0216"></wpt>
    <wpt lat="28.44833" lon="77.02174"></wpt>
    <wpt lat="28.44837" lon="77.02203"></wpt>
    <wpt lat="28.4484" lon="77.02232"></wpt>
    <wpt lat="28.44842" lon="77.02261"></wpt>
    <wpt lat="28.44842" lon="77.02279"></wpt>
    <wpt lat="28.44841" lon="77.02309"></wpt>
    <wpt lat="28.44839" lon="77.02324"></wpt>
    <wpt lat="28.44834" lon="77.02361"></wpt>
    <wpt lat="28.44826" lon="77.02396"></wpt>
    <wpt lat="28.44813" lon="77.0244"></wpt>
    <wpt lat="28.44763" lon="77.02612"></wpt>
    <wpt lat="28.44693" lon="77.02854"></wpt>
    <wpt lat="28.44646" lon="77.03022"></wpt>
    <wpt lat="28.4459" lon="77.03218"></wpt>
    <wpt lat="28.44584" lon="77.03241"></wpt>
    <wpt lat="28.44583" lon="77.03247"></wpt>
    <wpt lat="28.44582" lon="77.03247"></wpt>
    <wpt lat="28.44577" lon="77.03272"></wpt>
    <wpt lat="28.44576" lon="77.0328"></wpt>
    <wpt lat="28.44569" lon="77.0332"></wpt>
    <wpt lat="28.44568" lon="77.03331"></wpt>
    <wpt lat="28.44568" lon="77.03334"></wpt>
    <wpt lat="28.44568" lon="77.03335"></wpt>
    <wpt lat="28.44568" lon="77.03336"></wpt>
    <wpt lat="28.44567" lon="77.0336"></wpt>
    <wpt lat="28.44567" lon="77.03381"></wpt>
    <wpt lat="28.44568" lon="77.03401"></wpt>
    <wpt lat="28.44571" lon="77.03441"></wpt>
    <wpt lat="28.44575" lon="77.03468"></wpt>
    <wpt lat="28.44577" lon="77.03479"></wpt>
    <wpt lat="28.44581" lon="77.03496"></wpt>
    <wpt lat="28.4459" lon="77.03527"></wpt>
    <wpt lat="28.44609" lon="77.03576"></wpt>
    <wpt lat="28.44626" lon="77.03611"></wpt>
    <wpt lat="28.44638" lon="77.03632"></wpt>
    <wpt lat="28.44652" lon="77.03654"></wpt>
    <wpt lat="28.44661" lon="77.03666"></wpt>
    <wpt lat="28.44687" lon="77.03697"></wpt>
    <wpt lat="28.44741" lon="77.03752"></wpt>
    <wpt lat="28.4476" lon="77.03769"></wpt>
    <wpt lat="28.44807" lon="77.03813"></wpt>
    <wpt lat="28.44819" lon="77.03825"></wpt>
    <wpt lat="28.44832" lon="77.03837"></wpt>
    <wpt lat="28.44895" lon="77.03901"></wpt>
    <wpt lat="28.44895" lon="77.03901"></wpt>
    <wpt lat="28.44904" lon="77.03903"></wpt>
    <wpt lat="28.44909" lon="77.03905"></wpt>
    <wpt lat="28.44914" lon="77.03908"></wpt>
    <wpt lat="28.4492" lon="77.03912"></wpt>
    <wpt lat="28.44951" lon="77.03941"></wpt>
    <wpt lat="28.44987" lon="77.03975"></wpt>
    <wpt lat="28.45024" lon="77.04009"></wpt>
    <wpt lat="28.45039" lon="77.04021"></wpt>
    <wpt lat="28.45047" lon="77.04027"></wpt>
    <wpt lat="28.45057" lon="77.04034"></wpt>
    <wpt lat="28.45062" lon="77.04035"></wpt>
    <wpt lat="28.45066" lon="77.04036"></wpt>
    <wpt lat="28.45069" lon="77.04036"></wpt>
    <wpt lat="28.451" lon="77.04064"></wpt>
    <wpt lat="28.45136" lon="77.04098"></wpt>
    <wpt lat="28.45179" lon="77.0414"></wpt>
    <wpt lat="28.45179" lon="77.0414"></wpt>
    <wpt lat="28.45192" lon="77.04153"></wpt>
    <wpt lat="28.45205" lon="77.04167"></wpt>
    <wpt lat="28.45205" lon="77.04167"></wpt>
    <wpt lat="28.45212" lon="77.04174"></wpt>
    <wpt lat="28.45174" lon="77.04212"></wpt>
    <wpt lat="28.45151" lon="77.0423"></wpt>
    <wpt lat="28.45148" lon="77.04232"></wpt>
    <wpt lat="28.45141" lon="77.04235"></wpt>
    <wpt lat="28.45137" lon="77.04239"></wpt>
    <wpt lat="28.45128" lon="77.04246"></wpt>
    <wpt lat="28.45123" lon="77.04252"></wpt>
    <wpt lat="28.45097" lon="77.0428"></wpt>
    <wpt lat="28.45097" lon="77.0428"></wpt>
    <wpt lat="28.45099" lon="77.04281"></wpt>
    <wpt lat="28.45112" lon="77.04296"></wpt>
    <wpt lat="28.45122" lon="77.04306"></wpt>
    <wpt lat="28.45131" lon="77.04315"></wpt>
    <wpt lat="28.45141" lon="77.04322"></wpt>
    <wpt lat="28.45152" lon="77.04331"></wpt>
    <wpt lat="28.45161" lon="77.04337"></wpt>
    <wpt lat="28.45169" lon="77.04344"></wpt>
    <wpt lat="28.45187" lon="77.04362"></wpt>
    <wpt lat="28.45202" lon="77.04376"></wpt>
    <wpt lat="28.45229" lon="77.04403"></wpt>
    <wpt lat="28.45304" lon="77.04476"></wpt>
    <wpt lat="28.45381" lon="77.04547"></wpt>
    <wpt lat="28.45381" lon="77.04547"></wpt>
    <wpt lat="28.4538" lon="77.04549"></wpt>
    <wpt lat="28.45344" lon="77.04595"></wpt>
    <wpt lat="28.45342" lon="77.04597"></wpt>
    <wpt lat="28.45342" lon="77.04597"></wpt>
    <wpt lat="28.45362" lon="77.04616"></wpt>
    <wpt lat="28.45362" lon="77.04616"></wpt>
    <wpt lat="28.45328" lon="77.04662"></wpt>
    <wpt lat="28.45325" lon="77.04666"></wpt>
    <wpt lat="28.45324" lon="77.04668"></wpt>
    <wpt lat="28.45324" lon="77.0467"></wpt>
    <wpt lat="28.45324" lon="77.04673"></wpt>
    <wpt lat="28.45324" lon="77.04674"></wpt>
    <wpt lat="28.45325" lon="77.04675"></wpt>
    <wpt lat="28.45326" lon="77.04677"></wpt>
    <wpt lat="28.45418" lon="77.04768"></wpt>
    <wpt lat="28.45418" lon="77.04768"></wpt>
    <wpt lat="28.45418" lon="77.04769"></wpt>
    <wpt lat="28.45384" lon="77.04815"></wpt>
    <wpt lat="28.45384" lon="77.04815"></wpt>
    <wpt lat="28.45421" lon="77.0485"></wpt>
    <wpt lat="28.45421" lon="77.0485"></wpt>
    <wpt lat="28.45388" lon="77.04891"></wpt>
    <wpt lat="28.4537" lon="77.04915"></wpt>
    <wpt lat="28.4537" lon="77.04915"></wpt>
    <wpt lat="28.45307" lon="77.05003"></wpt>
    <wpt lat="28.45307" lon="77.05003"></wpt>
    <wpt lat="28.45284" lon="77.0498"></wpt>
    <wpt lat="28.45284" lon="77.0498"></wpt>
    <wpt lat="28.45229" lon="77.0505"></wpt>
    <wpt lat="28.45202" lon="77.05088"></wpt>
    <wpt lat="28.45135" lon="77.05177"></wpt>
    <wpt lat="28.451" lon="77.05223"></wpt>
    <wpt lat="28.45088" lon="77.05239"></wpt>
    <wpt lat="28.45083" lon="77.05245"></wpt>
    <wpt lat="28.45083" lon="77.05245"></wpt>
    <wpt lat="28.45241" lon="77.05394"></wpt>
    <wpt lat="28.45367" lon="77.05509"></wpt>
    <wpt lat="28.45464" lon="77.05599"></wpt>
    <wpt lat="28.45492" lon="77.05623"></wpt>
    <wpt lat="28.45515" lon="77.05644"></wpt>
    <wpt lat="28.45521" lon="77.05649"></wpt>
    <wpt lat="28.45527" lon="77.05656"></wpt>
    <wpt lat="28.45527" lon="77.05656"></wpt>
    <wpt lat="28.45491" lon="77.05706"></wpt>
    <wpt lat="28.45442" lon="77.05777"></wpt>
    <wpt lat="28.45424" lon="77.05802"></wpt>
    <wpt lat="28.45385" lon="77.05855"></wpt>
    <wpt lat="28.45377" lon="77.05865"></wpt>
    <wpt lat="28.45309" lon="77.05958"></wpt>
    <wpt lat="28.4522" lon="77.06076"></wpt>
    <wpt lat="28.45026" lon="77.06333"></wpt>
    <wpt lat="28.45022" lon="77.06339"></wpt>
    <wpt lat="28.45022" lon="77.06339"></wpt>
    <wpt lat="28.45019" lon="77.06354"></wpt>
    <wpt lat="28.45018" lon="77.06365"></wpt>
    <wpt lat="28.45017" lon="77.06374"></wpt>
    <wpt lat="28.45017" lon="77.06383"></wpt>
    <wpt lat="28.45018" lon="77.06397"></wpt>
    <wpt lat="28.45019" lon="77.06402"></wpt>
    <wpt lat="28.45023" lon="77.06426"></wpt>
    <wpt lat="28.4504" lon="77.06441"></wpt>
    <wpt lat="28.45199" lon="77.06595"></wpt>
    <wpt lat="28.45245" lon="77.06637"></wpt>
    <wpt lat="28.45375" lon="77.06754"></wpt>
    <wpt lat="28.45451" lon="77.06824"></wpt>
    <wpt lat="28.45486" lon="77.06858"></wpt>
    <wpt lat="28.45497" lon="77.06869"></wpt>
    <wpt lat="28.45506" lon="77.06877"></wpt>
    <wpt lat="28.45723" lon="77.07073"></wpt>
    <wpt lat="28.45736" lon="77.07082"></wpt>
    <wpt lat="28.45737" lon="77.07083"></wpt>
    <wpt lat="28.45744" lon="77.07088"></wpt>
    <wpt lat="28.45787" lon="77.07128"></wpt>
    <wpt lat="28.45814" lon="77.07151"></wpt>
    <wpt lat="28.45814" lon="77.07151"></wpt>
    <wpt lat="28.45829" lon="77.07164"></wpt>
    <wpt lat="28.45836" lon="77.07179"></wpt>
    <wpt lat="28.45846" lon="77.07183"></wpt>
    <wpt lat="28.45867" lon="77.07195"></wpt>
    <wpt lat="28.45874" lon="77.07199"></wpt>
    <wpt lat="28.45881" lon="77.07202"></wpt>
    <wpt lat="28.45891" lon="77.07208"></wpt>
    <wpt lat="28.45897" lon="77.07212"></wpt>
    <wpt lat="28.45912" lon="77.07225"></wpt>
    <wpt lat="28.45926" lon="77.07237"></wpt>
    <wpt lat="28.45929" lon="77.07239"></wpt>
</gpx>    
